5 Grouping and summarizing – Cleaning, Tidying, and Wrangling Data
…
5  Grouping and summarizing

In this last section, we’re going to look at how we might perform operations on datasets based on a grouping variable. This , but rather than be part , this grouping will be used to

Let’s start by creating a dataset of only Norway maples.

norwayMaples<-treeData %>%
  filter(CommonName=="Norway maple") 
norwayMaples

# A tibble: 320 × 41
   DbaseID Region City   Source TreeID Zone  `Park/Street` SpCode ScientificName
     <dbl> <chr>  <chr>  <chr>   <dbl> <chr> <chr>         <chr>  <chr>         
 1    3905 NMtnPr Fort … FNLMa…     26 -1    Street        ACPL   Acer platanoi…
 2    3921 NMtnPr Fort … FNLMa…     38 -1    Street        ACPL   Acer platanoi…
 3    3923 NMtnPr Fort … FNLMa…     41 -1    Street        ACPL   Acer platanoi…
 4    3935 NMtnPr Fort … FNLMa…     55 -1    Street        ACPL   Acer platanoi…
 5    3938 NMtnPr Fort … FNLMa…     61 -1    Street        ACPL   Acer platanoi…
 6    3939 NMtnPr Fort … FNLMa…     63 -1    Street        ACPL   Acer platanoi…
 7    4006 NMtnPr Fort … FNLMa…    124 -1    Street        ACPL   Acer platanoi…
 8    4042 NMtnPr Fort … FNLMa…    150 -1    Street        ACPL   Acer platanoi…
 9    4069 NMtnPr Fort … FNLMa…    181 -1    Street        ACPL   Acer platanoi…
10    4070 NMtnPr Fort … FNLMa…    186 -1    Street        ACPL   Acer platanoi…
# ℹ 310 more rows
# ℹ 32 more variables: CommonName <chr>, TreeType <chr>, address <chr>,
#   street <chr>, side <chr>, cell <dbl>, OnStreet <chr>, FromStreet <chr>,
#   ToStreet <chr>, Age <dbl>, `DBH (cm)` <dbl>, `TreeHt (m)` <dbl>,
#   CrnBase <dbl>, `CrnHt (m)` <dbl>, `CdiaPar (m)` <dbl>,
#   `CDiaPerp (m)` <dbl>, `AvgCdia (m)` <dbl>, `Leaf (m2)` <dbl>,
#   Setback <dbl>, TreeOr <dbl>, CarShade <dbl>, LandUse <dbl>, Shape <dbl>, …
…
That’s better. Now, let’s say we wanted to see the top 5 from each state. We’ll need to use the separate function we saw earlier to get State into it’s own column. But after this, we’ll use the group_by function to group the data based on this new column:

stateNorways<-norwayMaples %>%
  separate(col=City,into=c("City","State"),sep=", ", extra="drop") %>%
  group_by(State) 

stateNorways

# A tibble: 320 × 42
# Groups:   State [6]
   DbaseID Region City         State Source    TreeID Zone  `Park/Street` SpCode
     <dbl> <chr>  <chr>        <chr> <chr>      <dbl> <chr> <chr>         <chr> 
 1    3905 NMtnPr Fort Collins CO    FNLMaste…     26 -1    Street        ACPL  
 2    3921 NMtnPr Fort Collins CO    FNLMaste…     38 -1    Street        ACPL  
 3    3923 NMtnPr Fort Collins CO    FNLMaste…     41 -1    Street        ACPL  
 4    3935 NMtnPr Fort Collins CO    FNLMaste…     55 -1    Street        ACPL  
 5    3938 NMtnPr Fort Collins CO    FNLMaste…     61 -1    Street        ACPL  
 6    3939 NMtnPr Fort Collins CO    FNLMaste…     63 -1    Street        ACPL  
 7    4006 NMtnPr Fort Collins CO    FNLMaste…    124 -1    Street        ACPL  
 8    4042 NMtnPr Fort Collins CO    FNLMaste…    150 -1    Street        ACPL  
 9    4069 NMtnPr Fort Collins CO    FNLMaste…    181 -1    Street        ACPL  
10    4070 NMtnPr Fort Collins CO    FNLMaste…    186 -1    Street        ACPL  
# ℹ 310 more rows
# ℹ 33 more variables: ScientificName <chr>, CommonName <chr>, TreeType <chr>,
#   address <chr>, street <chr>, side <chr>, cell <dbl>, OnStreet <chr>,
#   FromStreet <chr>, ToStreet <chr>, Age <dbl>, `DBH (cm)` <dbl>,
#   `TreeHt (m)` <dbl>, CrnBase <dbl>, `CrnHt (m)` <dbl>, `CdiaPar (m)` <dbl>,
#   `CDiaPerp (m)` <dbl>, `AvgCdia (m)` <dbl>, `Leaf (m2)` <dbl>,
#   Setback <dbl>, TreeOr <dbl>, CarShade <dbl>, LandUse <dbl>, Shape <dbl>, …

Look at the top left line in that tibble printout. The dimensions are identical to that produced by norwayMaples, but next to the dimensions, it says Groups: State [6]. This means that any operations performed on this table now will be done group-wise, or applied to each group separately. For example, let’s try and get our top five trees by height again:

top5<-stateNorways %>%
  slice_max(order_by=`TreeHt (m)`,n=5,with_ties = FALSE)
top5

# A tibble: 30 × 42
# Groups:   State [6]
   DbaseID Region City         State Source    TreeID Zone  `Park/Street` SpCode
     <dbl> <chr>  <chr>        <chr> <chr>      <dbl> <chr> <chr>         <chr> 
 1    4591 NMtnPr Fort Collins CO    FNLMaste…   1327 -1    Street        ACPL  
 2    4475 NMtnPr Fort Collins CO    FNLMaste…    918 -1    Street        ACPL  
 3    4598 NMtnPr Fort Collins CO    FNLMaste…   1352 -1    Street        ACPL  
 4    4179 NMtnPr Fort Collins CO    FNLMaste…    347 -1    Street        ACPL  
 5    4439 NMtnPr Fort Collins CO    FNLMaste…    823 -1    Street        ACPL  
 6    8077 TpIntW Boise        ID    BOIMaste…   7283 2A    Street        ACPL  
 7    8265 TpIntW Boise        ID    BOIMaste…  14627 4A    Street        ACPL  
 8    8277 TpIntW Boise        ID    BOIMaste…  14970 4A    Street        ACPL  
 9    8762 TpIntW Boise        ID    BOIMaste…  70013 JJ    Street        ACPL  
10    8239 TpIntW Boise        ID    BOIMaste…  13630 4A    Street        ACPL  
# ℹ 20 more rows
# ℹ 33 more variables: ScientificName <chr>, CommonName <chr>, TreeType <chr>,
#   address <chr>, street <chr>, side <chr>, cell <dbl>, OnStreet <chr>,
#   FromStreet <chr>, ToStreet <chr>, Age <dbl>, `DBH (cm)` <dbl>,
#   `TreeHt (m)` <dbl>, CrnBase <dbl>, `CrnHt (m)` <dbl>, `CdiaPar (m)` <dbl>,
#   `CDiaPerp (m)` <dbl>, `AvgCdia (m)` <dbl>, `Leaf (m2)` <dbl>,
#   Setback <dbl>, TreeOr <dbl>, CarShade <dbl>, LandUse <dbl>, Shape <dbl>, …
…
What end up with is the same set of summary statistics, but calculated for each state.

Ungrouping

There are sometimes situtations where you may need to add a grouping to a dataset and then remove it later. The function for removing a grouping is ungroup:

stateNorways<-ungroup(stateNorways)
stateNorways

# A tibble: 320 × 42
   DbaseID Region City         State Source    TreeID Zone  `Park/Street` SpCode
     <dbl> <chr>  <chr>        <chr> <chr>      <dbl> <chr> <chr>         <chr> 
 1    3905 NMtnPr Fort Collins CO    FNLMaste…     26 -1    Street        ACPL  
 2    3921 NMtnPr Fort Collins CO    FNLMaste…     38 -1    Street        ACPL  
 3    3923 NMtnPr Fort Collins CO    FNLMaste…     41 -1    Street        ACPL  
 4    3935 NMtnPr Fort Collins CO    FNLMaste…     55 -1    Street        ACPL  
 5    3938 NMtnPr Fort Collins CO    FNLMaste…     61 -1    Street        ACPL  
 6    3939 NMtnPr Fort Collins CO    FNLMaste…     63 -1    Street        ACPL  
 7    4006 NMtnPr Fort Collins CO    FNLMaste…    124 -1    Street        ACPL  
 8    4042 NMtnPr Fort Collins CO    FNLMaste…    150 -1    Street        ACPL  
 9    4069 NMtnPr Fort Collins CO    FNLMaste…    181 -1    Street        ACPL  
10    4070 NMtnPr Fort Collins CO    FNLMaste…    186 -1    Street        ACPL  
# ℹ 310 more rows
# ℹ 33 more variables: ScientificName <chr>, CommonName <chr>, TreeType <chr>,
#   address <chr>, street <chr>, side <chr>, cell <dbl>, OnStreet <chr>,
#   FromStreet <chr>, ToStreet <chr>, Age <dbl>, `DBH (cm)` <dbl>,
#   `TreeHt (m)` <dbl>, CrnBase <dbl>, `CrnHt (m)` <dbl>, `CdiaPar (m)` <dbl>,
#   `CDiaPerp (m)` <dbl>, `AvgCdia (m)` <dbl>, `Leaf (m2)` <dbl>,
#   Setback <dbl>, TreeOr <dbl>, CarShade <dbl>, LandUse <dbl>, Shape <dbl>, …
…
