4 Pipes – Cleaning, Tidying, and Wrangling Data
…
We’ve seen all of these techniques, and could write a code block that does all of it:

#filter only Modesto maple trees
modestoMaples1<-filter(treeData,City=="Modesto, CA" & str_detect(CommonName,"maple"))
#select only ID, city, tree ht, crown ht, DBH, and stem DBH
modestoMaples2<-select(modestoMaples1,DbaseID,City,`TreeHt (m)`,`CrnHt (m)`,`DBH (cm)`,starts_with("dbh"))
#create a column for crown depth
modestoMaples3<-mutate(modestoMaples2,crownDepth_m=`TreeHt (m)`-`CrnHt (m)`)
#pivot stem numbers to column with corresponding DBH values
modestoMaples4<-pivot_longer(data=modestoMaples3,cols=dbh1:dbh8,names_to="stemNum",values_to="dbhMeasure")

modestoMaples4

# A tibble: 232 × 8
   DbaseID City        `TreeHt (m)` `CrnHt (m)` `DBH (cm)` crownDepth_m stemNum
     <dbl> <chr>              <dbl>       <dbl>      <dbl>        <dbl> <chr>  
 1       1 Modesto, CA            2         0.5        2.5          1.5 dbh1   
 2       1 Modesto, CA            2         0.5        2.5          1.5 dbh2   
 3       1 Modesto, CA            2         0.5        2.5          1.5 dbh3   
 4       1 Modesto, CA            2         0.5        2.5          1.5 dbh4   
 5       1 Modesto, CA            2         0.5        2.5          1.5 dbh5   
 6       1 Modesto, CA            2         0.5        2.5          1.5 dbh6   
 7       1 Modesto, CA            2         0.5        2.5          1.5 dbh7   
 8       1 Modesto, CA            2         0.5        2.5          1.5 dbh8   
 9      43 Modesto, CA           12        10.5       40.1          1.5 dbh1   
10      43 Modesto, CA           12        10.5       40.1          1.5 dbh2   
# ℹ 222 more rows
# ℹ 1 more variable: dbhMeasure <dbl>
…
newObject<-originalData %>%  functionA(arguments) %>%  functionB(arguments)

Here, newObject will be where we assign the result of our transformations, and we put the dataset to be transformed (originalData) on the other side of the assignment operator (<-). This is followed by a pipe1 (%>%), which can be translated as “take the result of the preceding code and send it as the first argument in the next function”. Since the most of the tidyverse packages take a table as their first argument, the first pipe above sends the original data to functionA. The arguments given to the function do not include the dataset, but can refer to its variables by name. This result can be be piped into another function, and this process repeats until the data transformations are complete.

Let’s try it with the same procedure above:

modestoMaples<-treeData %>%
  filter(City=="Modesto, CA" & str_detect(CommonName,"maple")) %>% #only Modesto maples
  select(DbaseID,City,`TreeHt (m)`,`CrnHt (m)`,`DBH (cm)`,starts_with("dbh")) %>% #select columns
  mutate(crownDepth_m=`TreeHt (m)`-`CrnHt (m)`) %>% #add crown depth
  pivot_longer(cols=dbh1:dbh8,names_to="stemNum",values_to="dbhMeasure") #pivot stems to get stem nums
modestoMaples

# A tibble: 232 × 8
   DbaseID City        `TreeHt (m)` `CrnHt (m)` `DBH (cm)` crownDepth_m stemNum
     <dbl> <chr>              <dbl>       <dbl>      <dbl>        <dbl> <chr>  
 1       1 Modesto, CA            2         0.5        2.5          1.5 dbh1   
 2       1 Modesto, CA            2         0.5        2.5          1.5 dbh2   
 3       1 Modesto, CA            2         0.5        2.5          1.5 dbh3   
 4       1 Modesto, CA            2         0.5        2.5          1.5 dbh4   
 5       1 Modesto, CA            2         0.5        2.5          1.5 dbh5   
 6       1 Modesto, CA            2         0.5        2.5          1.5 dbh6   
 7       1 Modesto, CA            2         0.5        2.5          1.5 dbh7   
 8       1 Modesto, CA            2         0.5        2.5          1.5 dbh8   
 9      43 Modesto, CA           12        10.5       40.1          1.5 dbh1   
10      43 Modesto, CA           12        10.5       40.1          1.5 dbh2   
# ℹ 222 more rows
# ℹ 1 more variable: dbhMeasure <dbl>
…
