Environmental Data Analysis and Visualization
…
More spatial visualization packages

Binned plots

Leaflet

Rayshader

Binned plots with statebins

# A tibble: 50 × 5
   State        Operational `Under construction` Announced `Total Data Centers`
   <chr>              <dbl>                <dbl>     <dbl>                <dbl>
 1 Texas                212                  140       610                  962
 2 Virginia             320                  136       498                  954
 3 Georgia               62                   56       340                  458
 4 Pennsylvania          37                   11       209                  257
 5 Arizona               83                   35       136                  254
 6 Ohio                 101                   51        98                  250
 7 Illinois              78                   19       153                  250
 8 California           166                    6        40                  212
 9 Utah                  29                   10       117                  156
10 Oregon                97                   14        33                  144
# ℹ 40 more rows
…
