2 Checking Assumptions: Model Diagnostics – Usefully Wrong: Models in R
…
there is equal variance in the residuals

Independence only becomes an issue when repeated observations are concerned; if you’re recording the same entity at multiple points in time, then this can lead to issues related to autocorrelation and, if not identified, can lead to poor results in time series regression. However, if you’re only recording data at one point time, and that’s true for our tree data, then this is not a major concern.

Visual inspection of the data in a scatterplot can give some insights into the latter three, but they are also readily assessed post-hoc, or after the model has been constructed, using a set of diagnostic tools in R. These can be used to determine whether our tree models meet the above criteria.

Before we do, let’s create some simulated data that we know meets the assumptions of linear modeling:

predictor<-runif(50,0,10)
error<-rnorm(50,0,1)
response<-predictor + error
fakeData<-tibble(predictor,response,error)
fakeData

# A tibble: 50 × 3
   predictor response  error
       <dbl>    <dbl>  <dbl>
 1     8.85    8.52   -0.330
 2     0.766  -0.646  -1.41 
 3     4.34    3.34   -1.000
 4     6.68    4.36   -2.31 
 5     3.11    4.04    0.939
 6     6.24    4.86   -1.39 
 7     0.588  -0.0233 -0.612
 8     1.01    1.32    0.318
 9     3.62    3.38   -0.235
10     9.03   10.1     1.08 
# ℹ 40 more rows
…
