Environmental Data Analysis and Visualization
…
Data wrangling in the tidyverse

fellsData<-read_csv("data/fellsTravelData.csv")
fellsData

# A tibble: 64 × 4
   universityYear walkTime driveTime ptTime
   <chr>             <dbl>     <dbl>  <dbl>
 1 first                65        12     37
 2 first                60        12     51
 3 first                66        10     33
 4 first                58        14     60
 5 first                70        12     44
 6 first                62        11     40
 7 first                62        11     52
 8 first                57         9     60
 9 first                66        11     50
10 first                66        11     55
# ℹ 54 more rows

Data wrangling in the tidyverse

fellsData2<-pivot_longer(
  data=fellsData,
  cols=walkTime:ptTime,
  names_to="method",
  values_to="time"
  )
fellsData2

# A tibble: 192 × 3
   universityYear method     time
   <chr>          <chr>     <dbl>
 1 first          walkTime     65
 2 first          driveTime    12
 3 first          ptTime       37
 4 first          walkTime     60
 5 first          driveTime    12
 6 first          ptTime       51
 7 first          walkTime     66
 8 first          driveTime    10
 9 first          ptTime       33
10 first          walkTime     58
# ℹ 182 more rows

Data wrangling in the tidyverse

fellsData2<-pivot_longer(
  data=fellsData,
  cols=walkTime:ptTime,
  names_to="method",
  values_to="time",
  names_pattern = "(.*)Time"
  )
fellsData2

# A tibble: 192 × 3
   universityYear method  time
   <chr>          <chr>  <dbl>
 1 first          walk      65
 2 first          drive     12
 3 first          pt        37
 4 first          walk      60
 5 first          drive     12
 6 first          pt        51
 7 first          walk      66
 8 first          drive     10
 9 first          pt        33
10 first          walk      58
# ℹ 182 more rows
…
Pipes in R

The pipe operator %>% allows us to combine multiple functions into an ordered set of transformations.

Pipes in R

# A tibble: 32,735 × 16
    year month   day dep_time dep_delay arr_time arr_delay carrier tailnum
   <int> <int> <int>    <int>     <dbl>    <int>     <dbl> <chr>   <chr>  
 1  2013     6    30      940        15     1216        -4 VX      N626VA 
 2  2013     5     7     1657        -3     2104        10 DL      N3760C 
 3  2013    12     8      859        -1     1238        11 DL      N712TW 
 4  2013     5    14     1841        -4     2122       -34 DL      N914DL 
 5  2013     7    21     1102        -3     1230        -8 9E      N823AY 
 6  2013     1     1     1817        -3     2008         3 AA      N3AXAA 
 7  2013    12     9     1259        14     1617        22 WN      N218WN 
 8  2013     8    13     1920        85     2032        71 B6      N284JB 
 9  2013     9    26      725       -10     1027        -8 AA      N3FSAA 
10  2013     4    30     1323        62     1549        60 EV      N12163 
# ℹ 32,725 more rows
# ℹ 7 more variables: flight <int>, origin <chr>, dest <chr>, air_time <dbl>,
#   distance <dbl>, hour <dbl>, minute <dbl>

Pipes in R

nycflights %>%  filter(month==1)

# A tibble: 2,610 × 16
    year month   day dep_time dep_delay arr_time arr_delay carrier tailnum
   <int> <int> <int>    <int>     <dbl>    <int>     <dbl> <chr>   <chr>  
 1  2013     1     1     1817        -3     2008         3 AA      N3AXAA 
 2  2013     1    23     2024        37     2141        29 EV      N17115 
 3  2013     1    15     1626        -3     1941        10 B6      N594JB 
 4  2013     1    17      626        -4      846         3 US      N554UW 
 5  2013     1     8      902        -3     1006       -17 B6      N281JB 
 6  2013     1    15     1947       167     2241       171 AA      N5EGAA 
 7  2013     1     1     1454        -4     1554       -21 EV      N11544 
 8  2013     1    30     1306        -9     1430        -1 EV      N13969 
 9  2013     1     4     1942        -3     2249       -40 B6      N637JB 
10  2013     1     8     1859        -6     2158       -27 AA      N322AA 
# ℹ 2,600 more rows
# ℹ 7 more variables: flight <int>, origin <chr>, dest <chr>, air_time <dbl>,
#   distance <dbl>, hour <dbl>, minute <dbl>
…
Data pipelines

nycflights %>%
  mutate(speed = distance / air_time * 60) %>%   
  select(year:day,dep_time,carrier,flight,speed) %>%   
  filter(month==1) %>%   
  unite(col="Date",c(month,day,year),sep="/")

# A tibble: 2,610 × 5
   Date      dep_time carrier flight speed
   <chr>        <int> <chr>    <int> <dbl>
 1 1/1/2013      1817 AA         353  319.
 2 1/23/2013     2024 EV        4412  319.
 3 1/15/2013     1626 B6         369  414 
 4 1/17/2013      626 US        1433  311.
 5 1/8/2013       902 B6          56  340.
 6 1/15/2013     1947 AA         575  396.
 7 1/1/2013      1454 EV        4390  363.
 8 1/30/2013     1306 EV        4120  277.
 9 1/4/2013      1942 B6         645  466.
10 1/8/2013      1859 AA          21  441.
# ℹ 2,600 more rows

Data pipelines

“I want a table with ID Number, Diameter in mm, and number of rings on top 100 abalone by ring count.”

rawData<-read_csv("data/abalone.csv")  
rawData %>% 
  mutate(diameter_mm=diameter * 200) %>%   
  select(...1,diameter_mm,rings) %>%   
  slice_max(order_by=rings,n=100)

# A tibble: 136 × 3
    ...1 diameter_mm rings
   <dbl>       <dbl> <dbl>
 1   481         117    29
 2  2109         107    27
 3  2210          93    27
 4   295          99    26
 5  2202          98    25
 6  3150         108    24
 7  3281         108    24
 8   314          94    23
 9   315          97    23
10   502         104    23
# ℹ 126 more rows
…
