Putting the FUN in FUNdamentals of Programming
…
Beyond manipulating and plotting data, R is a powerful tool for automating complicated tasks and making them easy to reproduce. This is often done through the use of programming customized algorithms and functions. In this section, we will work on a few of the most common types of programming structures.

First steps

require(tidyverse)

for loops

A for loop is a structure that iterates over a vector and performs a task for each item. This is useful when you want to apply an elaborate procedure over a given set of data. First, create a new script/Quarto document and save it alongside the dataset here. Next, let’s load some data:

fishlength<-read_csv("fishlength.csv")
fishlength

# A tibble: 249 × 2
   species          length_mm
   <chr>                <dbl>
 1 A. dieffenbachii      871.
 2 O. mykiss             378.
 3 O. mykiss             471.
 4 A. dieffenbachii      844.
 5 A. dieffenbachii      700.
 6 O. mykiss             446.
 7 O. mykiss             412.
 8 A. dieffenbachii      660.
 9 O. mykiss             276.
10 A. dieffenbachii      801.
# ℹ 239 more rows
…
