Environmental Data Analysis and Visualization
…
Population (only above 4 million)

National Walkability Index score (note: this may not be immediately obvious)

If you still have time, show the distribution of walkability index scores for all CBSAs in this new dataset.

Warm-Up Exercise

walkData<-read_csv("data/walkability.csv")
walkData %>%   
  separate(CBSA_Name,into=c("Cities","States"),sep=",",extra="drop") %>% 
  select(Cities,CBSA_POP,NatWalkInd) %>% 
  filter(CBSA_POP>4000000) 

# A tibble: 65,108 × 3
   Cities                      CBSA_POP NatWalkInd
   <chr>                          <dbl>      <dbl>
 1 Dallas-Fort Worth-Arlington  7189384      14   
 2 Dallas-Fort Worth-Arlington  7189384      10.8 
 3 Dallas-Fort Worth-Arlington  7189384       8.33
 4 Dallas-Fort Worth-Arlington  7189384      15.7 
 5 Dallas-Fort Worth-Arlington  7189384      10.2 
 6 Dallas-Fort Worth-Arlington  7189384       6.83
 7 Dallas-Fort Worth-Arlington  7189384       8   
 8 Dallas-Fort Worth-Arlington  7189384      13.2 
 9 Dallas-Fort Worth-Arlington  7189384      10.5 
10 Dallas-Fort Worth-Arlington  7189384       8.67
# ℹ 65,098 more rows
…
Dates as data

#convert to tibble, convert row names to date column
exxon<-as_tibble(XOM,rownames="Date") %>%
  mutate(Date=ymd(Date)) #convert to date values
exxon

# A tibble: 4,730 × 7
   Date       XOM.Open XOM.High XOM.Low XOM.Close XOM.Volume XOM.Adjusted
   <date>        <dbl>    <dbl>   <dbl>     <dbl>      <dbl>        <dbl>
 1 2007-01-03     76.3     76.3    73.5      74.1   30510700         38.6
 2 2007-01-04     73.8     73.9    72.2      72.7   31046600         37.9
 3 2007-01-05     72.4     73.4    72.2      73.2   24671500         38.2
 4 2007-01-08     73.9     74.2    71.8      72.7   25981900         37.9
 5 2007-01-09     71.8     72.8    71.4      72.1   27039900         37.6
 6 2007-01-10     71.8     73.1    70.6      71.0   30572000         37.0
 7 2007-01-11     71.0     72.8    70.8      71.0   29161700         37.0
 8 2007-01-12     71.2     72.7    71.2      72.7   24438700         37.9
 9 2007-01-16     72.5     72.7    71.2      71.6   25444400         37.3
10 2007-01-17     71.5     72.6    71.4      72.5   31292200         37.8
# ℹ 4,720 more rows
…
“29 February 2000”

“07/20/1969”

“1980-Dec-11”

Visualizing time data

NASDAQ Composite data

nasdaq<-read_csv("data/nasdaq.csv")
nasdaq

# A tibble: 127 × 5
   Date       `Close/Last`   Open   High    Low
   <chr>             <dbl>  <dbl>  <dbl>  <dbl>
 1 10/28/2024       18567. 18648. 18671. 18563.
 2 10/25/2024       18519. 18513. 18690. 18487.
 3 10/24/2024       18415. 18384. 18435. 18305.
 4 10/23/2024       18277. 18502. 18509. 18147.
 5 10/22/2024       18573. 18452. 18621. 18413.
 6 10/21/2024       18540  18456. 18544. 18378.
 7 10/18/2024       18490. 18466  18524. 18453.
 8 10/17/2024       18374. 18537. 18541. 18369.
 9 10/16/2024       18367. 18333. 18383. 18215.
10 10/15/2024       18316. 18516. 18564. 18253.
# ℹ 117 more rows
…
